…
```r
# statistics of number of participants for each year
temp <- df %>%
  select(year, age) %>%
  group_by(year)
summarise(temp)
```

```
## # A tibble: 47 × 1
##     year
##    <int>
##  1  1973
##  2  1974
##  3  1975
##  4  1976
##  5  1977
##  6  1978
##  7  1979
##  8  1980
##  9  1981
## 10  1982
## # … with 37 more rows
```
…
